%YAML 1.1
%TAG !u! tag:unity3d.com,2011:
--- !u!1 &5567135863752594952
GameObject:
  m_ObjectHideFlags: 0
  m_CorrespondingSourceObject: {fileID: 0}
  m_PrefabInstance: {fileID: 0}
  m_PrefabAsset: {fileID: 0}
  serializedVersion: 6
  m_Component:
  - component: {fileID: 5567135863752594954}
  - component: {fileID: 5567135863752594953}
  m_Layer: 0
  m_Name: Vilag Generalas 1
  m_TagString: Untagged
  m_Icon: {fileID: 0}
  m_NavMeshLayer: 0
  m_StaticEditorFlags: 0
  m_IsActive: 1
--- !u!4 &5567135863752594954
Transform:
  m_ObjectHideFlags: 0
  m_CorrespondingSourceObject: {fileID: 0}
  m_PrefabInstance: {fileID: 0}
  m_PrefabAsset: {fileID: 0}
  m_GameObject: {fileID: 5567135863752594952}
  m_LocalRotation: {x: 0, y: 0, z: 0, w: 1}
  m_LocalPosition: {x: 0.6671528, y: 0.7054298, z: -0.9650299}
  m_LocalScale: {x: 1, y: 1, z: 1}
  m_Children: []
  m_Father: {fileID: 0}
  m_RootOrder: 0
  m_LocalEulerAnglesHint: {x: 0, y: 0, z: 0}
--- !u!114 &5567135863752594953
MonoBehaviour:
  m_ObjectHideFlags: 0
  m_CorrespondingSourceObject: {fileID: 0}
  m_PrefabInstance: {fileID: 0}
  m_PrefabAsset: {fileID: 0}
  m_GameObject: {fileID: 5567135863752594952}
  m_Enabled: 1
  m_EditorHideFlags: 0
  m_Script: {fileID: 11500000, guid: 100229bc9b8396745a31e372597315b9, type: 3}
  m_Name: 
  m_EditorClassIdentifier: 
  jatekos: {fileID: 0}
  iteracio: 10
  felszin: {fileID: 2804915769406932411, guid: 1d8da69b94563034c8e73296c687a508, type: 3}
  fold: {fileID: 2804915769406932411, guid: 1d8da69b94563034c8e73296c687a508, type: 3}
  lathatatlanFal: {fileID: 5564417598099460830, guid: d7176683926387e49b1fa10a472f8555, type: 3}
  var: {fileID: 1507563207930204029, guid: b1bbc01c203800247a6de19d5e12fa1d, type: 3}
  zaszlo: {fileID: 7365740635880206231, guid: 5fc61568cfe808f42938c294612c70b9, type: 3}
